{
  "project_info": {
    "project_number": "476654389126",
    "firebase_url": "https://slot2park.firebaseio.com",
    "project_id": "slot2park",
    "storage_bucket": "slot2park.appspot.com"
  },
  "client": [
    {
      "client_info": {
        "mobilesdk_app_id": "1:476654389126:android:a0dbb6c8f55fe1da",
        "android_client_info": {
          "package_name": "com.ghostware.slot2park"
        }
      },
      "oauth_client": [
        {
          "client_id": "476654389126-fiub8855kqakknlup25i16mn4jml8735.apps.googleusercontent.com",
          "client_type": 3
        }
      ],
      "api_key": [
        {
          "current_key": "AIzaSyARYK6zHKqAnnAhAXgg7EDYUBxRH-kRW_c"
        }
      ],
      "services": {
        "analytics_service": {
          "status": 1
        },
        "appinvite_service": {
          "status": 1,
          "other_platform_oauth_client": []
        },
        "ads_service": {
          "status": 2
        }
      }
    }
  ],
  "configuration_version": "1"
}